<svg width="55" height="51" viewBox="0 0 55 51" fill="none" xmlns="http://www.w3.org/2000/svg">
<path d="M40.7996 15.3H39.0996V28.05H40.7996V15.3Z" fill="#E1A433"/>
<path d="M35.7 51V49.3C37.111 49.3 38.148 48.8835 39.3975 47.804L39.9585 47.328L40.511 47.8125C42.262 49.334 44.3445 49.6655 46.3675 48.7475C49.521 47.311 52.7 42.721 52.7 35.7085C52.7 32.5975 52.7 27.8885 48.9685 26.2905C45.0415 24.6075 42.8485 27.115 41.548 28.6195C40.9445 29.308 40.5535 29.767 39.9585 29.767C39.3635 29.767 38.9725 29.308 38.369 28.6195C37.06 27.1235 34.8755 24.6075 30.9485 26.2905C27.2 27.88 27.2 32.589 27.2 35.7C27.2 37.111 27.336 38.4795 27.5995 39.7885L25.9335 40.1285C25.6445 38.709 25.5 37.2215 25.5 35.7C25.5 32.3595 25.5 26.758 30.2685 24.718C35.3345 22.542 38.25 25.8825 39.644 27.489C39.746 27.5995 39.8565 27.727 39.95 27.8375C40.052 27.727 40.1625 27.5995 40.256 27.489C41.6585 25.8825 44.5655 22.542 49.6315 24.718C54.4 26.758 54.4 32.3595 54.4 35.7C54.4 42.432 51.459 48.2885 47.073 50.286C44.659 51.3825 42.1005 51.1105 39.95 49.538C38.607 50.558 37.298 51 35.7 51Z" fill="#E1A433"/>
<path d="M39.0996 23.817L39.1081 22.95C39.1081 22.797 39.1761 19.142 41.0546 17.255C42.9416 15.368 46.5881 15.3085 46.7496 15.3085L47.6166 15.3L47.6081 16.167C47.6081 16.32 47.5401 19.975 45.6616 21.862C43.7831 23.749 40.1281 23.8085 39.9666 23.8085L39.0996 23.817ZM45.8401 17.085C44.7181 17.2295 43.1201 17.6035 42.2616 18.462C41.4031 19.3205 41.0291 20.9185 40.8846 22.0405C42.0066 21.896 43.6046 21.522 44.4631 20.6635C45.3216 19.7965 45.6956 18.1985 45.8401 17.085Z" fill="#E1A433"/>
<path d="M54.4 49.3H0V51H54.4V49.3Z" fill="#E1A433"/>
<path d="M22.95 51.0001C9.6475 51.0001 0 41.7096 0 28.9001C0 24.3526 1.77649 18.2751 3.64649 16.3966C3.80799 16.2351 4.0205 16.1501 4.25 16.1501H5.95C6.086 16.1501 6.2135 16.1841 6.3325 16.2436C6.5535 16.3541 8.5 17.4421 8.5 21.2501C8.5 33.7621 15.844 42.5001 26.35 42.5001C30.396 42.5001 37.0345 40.0266 37.1025 40.0011C37.417 39.8821 37.7655 39.9586 38.0035 40.1966L38.8535 41.0466C39.066 41.2591 39.151 41.5651 39.0745 41.8541C38.1905 45.3901 33.031 51.0001 22.95 51.0001ZM4.6325 17.8501C3.264 19.5756 1.7 24.7351 1.7 28.9001C1.7 40.9106 10.438 49.3001 22.95 49.3001C31.195 49.3001 36.1505 45.1096 37.2895 41.8881L37.179 41.7776C35.479 42.3811 30.056 44.1916 26.35 44.1916C14.841 44.1916 6.8 34.7566 6.8 21.2416C6.8 19.0146 6.0095 18.1136 5.6865 17.8416H4.6325V17.8501Z" fill="#E1A433"/>
<path d="M6.80097 17.8501H5.10097V17.0851L5.08396 17.1701L3.41797 16.8386L4.26797 12.5886C4.34447 12.1891 4.69297 11.9086 5.10097 11.9086H5.95096C6.41846 11.9086 6.80097 12.2911 6.80097 12.7586V17.8501Z" fill="#E1A433"/>
<path d="M42.4998 33.15H40.7998V34.85H42.4998V33.15Z" fill="#E1A433"/>
<path d="M44.2 36.55H42.5V38.25H44.2V36.55Z" fill="#E1A433"/>
<path d="M40.7996 36.55H39.0996V38.25H40.7996V36.55Z" fill="#E1A433"/>
<path d="M42.4998 39.95H40.7998V41.65H42.4998V39.95Z" fill="#E1A433"/>
<path d="M37.4002 36.55H35.7002V38.25H37.4002V36.55Z" fill="#E1A433"/>
<path d="M39.1004 33.15H37.4004V34.85H39.1004V33.15Z" fill="#E1A433"/>
<path d="M15.2996 34H13.5996V0H50.9996V22.1H49.2996V1.7H15.2996V34Z" fill="#E1A433"/>
<path d="M45.9004 5.95H28.9004V7.65H45.9004V5.95Z" fill="#E1A433"/>
<path d="M35.7004 9.35001H28.9004V11.05H35.7004V9.35001Z" fill="#E1A433"/>
<path d="M39.1004 9.35001H37.4004V11.05H39.1004V9.35001Z" fill="#E1A433"/>
<path d="M22.1004 3.39999H20.4004V30.6H22.1004V3.39999Z" fill="#E1A433"/>
<path d="M22.1004 23.8H21.2504V22.1H22.1004C23.0354 22.1 23.8004 21.335 23.8004 20.4V17.1445C22.8144 17.493 22.1004 18.4365 22.1004 19.55H20.4004C20.4004 17.204 22.3044 15.3 24.6504 15.3H25.5004V20.4C25.5004 22.2785 23.9789 23.8 22.1004 23.8Z" fill="#E1A433"/>
<path d="M22.1004 13.6H21.2504V11.9H22.1004C23.0354 11.9 23.8004 11.135 23.8004 10.2V6.94452C22.8144 7.29302 22.1004 8.23651 22.1004 9.35001H20.4004C20.4004 7.00401 22.3044 5.10001 24.6504 5.10001H25.5004V10.2C25.5004 12.0785 23.9789 13.6 22.1004 13.6Z" fill="#E1A433"/>
<path d="M21.25 27.2H20.4C18.5215 27.2 17 25.6785 17 23.8V18.7H17.85C20.196 18.7 22.1 20.604 22.1 22.95H20.4C20.4 21.845 19.686 20.893 18.7 20.5445V23.8C18.7 24.735 19.465 25.5 20.4 25.5H21.25V27.2Z" fill="#E1A433"/>
<path d="M21.25 17H20.4C18.5215 17 17 15.4785 17 13.6V8.5H17.85C20.196 8.5 22.1 10.404 22.1 12.75H20.4C20.4 11.645 19.686 10.693 18.7 10.3445V13.6C18.7 14.535 19.465 15.3 20.4 15.3H21.25V17Z" fill="#E1A433"/>
</svg>
